<?xml version="1.0" encoding="UTF-8" standalone="no"?>
<svg
   width="148mm"
   height="105mm"
   version="1.1"
   viewBox="0 0 524.41 372.05"
   id="svg53"
   sodipodi:docname="score_note.svg"
   inkscape:version="1.3.2 (091e20ef0f, 2023-11-25)"
   xmlns:inkscape="http://www.inkscape.org/namespaces/inkscape"
   xmlns:sodipodi="http://sodipodi.sourceforge.net/DTD/sodipodi-0.dtd"
   xmlns="http://www.w3.org/2000/svg"
   xmlns:svg="http://www.w3.org/2000/svg">
  <sodipodi:namedview
     id="namedview1"
     pagecolor="#ffffff"
     bordercolor="#999999"
     borderopacity="1"
     inkscape:showpageshadow="0"
     inkscape:pageopacity="0"
     inkscape:pagecheckerboard="0"
     inkscape:deskcolor="#d1d1d1"
     inkscape:document-units="mm"
     inkscape:zoom="1.8252675"
     inkscape:cx="279.68504"
     inkscape:cy="198.3271"
     inkscape:window-width="1920"
     inkscape:window-height="1012"
     inkscape:window-x="0"
     inkscape:window-y="0"
     inkscape:window-maximized="1"
     inkscape:current-layer="svg53" />
  <defs
     id="defs53" />
  <text
     x="145.2726"
     y="183.16936"
     font-weight="bold"
     text-align="center"
     text-anchor="middle"
     style="fill:#000000;font-family:@font-family@;font-size:15.179px;font-variant-caps:normal;font-variant-east-asian:normal;font-variant-ligatures:normal;font-variant-numeric:normal;font-weight:bold;letter-spacing:0px;line-height:125%;stroke-width:1px;word-spacing:0px"
     xml:space="preserve"
     id="text1"><tspan
       x="145.2726"
       y="183.16936"
       font-family="'@font-family@'"
       font-size="15.179px"
       font-weight="bold"
       text-align="center"
       text-anchor="middle"
       style="font-family:@font-family@;font-size:15.179px;font-variant-caps:normal;font-variant-east-asian:normal;font-variant-ligatures:normal;font-variant-numeric:normal;font-weight:bold"
       id="tspan1">↓  1. Bobbl  ↓</tspan></text>
  <text
     x="377.6106"
     y="183.16936"
     font-weight="bold"
     text-align="center"
     text-anchor="middle"
     style="fill:#000000;font-family:@font-family@;font-size:15.179px;font-variant-caps:normal;font-variant-east-asian:normal;font-variant-ligatures:normal;font-variant-numeric:normal;font-weight:bold;letter-spacing:0px;line-height:125%;stroke-width:1px;word-spacing:0px"
     xml:space="preserve"
     id="text2"><tspan
       x="377.6106"
       y="183.16936"
       font-family="'@font-family@'"
       font-size="15.179px"
       font-weight="bold"
       text-align="center"
       text-anchor="middle"
       style="font-family:@font-family@;font-size:15.179px;font-variant-caps:normal;font-variant-east-asian:normal;font-variant-ligatures:normal;font-variant-numeric:normal;font-weight:bold"
       id="tspan2">↓  2. Bobbl  ↓</tspan></text>
  <path
     d="m105.8 100.43h272.07"
     stroke-width=".49961"
     style="fill:none;stroke:#000"
     id="path2" />
  <path
     d="m105.8 145.72h272.07"
     stroke-width=".5"
     style="fill:none;stroke:#000"
     id="path3" />
  <path
     d="m29.387 194.68h463.86"
     stroke-width="1.875"
     style="fill:none;stroke:#000"
     id="path4" />
  <path
     d="m261.32 160.64v196.98"
     stroke-width="1.875"
     style="fill:none;stroke:#000"
     id="path5" />
  <path
     d="m29.387 275.92h463.86"
     stroke-width=".9375"
     style="fill:none;stroke:#000"
     id="path6" />
  <path
     d="m291.61 235.3h190.9"
     stroke-dasharray="0.48771, 2.92626"
     stroke-width=".48771"
     style="fill:none;stroke:#000"
     id="path7" />
  <path
     d="m291.61 316.99h190.9"
     stroke-dasharray="0.48771, 2.92626"
     stroke-width=".48771"
     style="fill:none;stroke:#000"
     id="path8" />
  <text
     x="128.47887"
     y="36.491741"
     style="fill:#000000;font-family:@font-family@;font-size:17.5px;font-variant-caps:normal;font-variant-east-asian:normal;font-variant-ligatures:normal;font-variant-numeric:normal;letter-spacing:0px;line-height:125%;stroke-width:1px;word-spacing:0px"
     xml:space="preserve"
     id="text9"><tspan
       x="128.47887"
       y="36.491741"
       style="font-family:@font-family@;font-size:17.5px;font-variant-caps:normal;font-variant-east-asian:normal;font-variant-ligatures:normal;font-variant-numeric:normal"
       id="tspan8">@title@</tspan><tspan
       x="128.47887"
       y="36.491741"
       style="font-family:@font-family@;font-size:17.5px;font-variant-caps:normal;font-variant-east-asian:normal;font-variant-ligatures:normal;font-variant-numeric:normal"
       id="tspan9" /></text>
  <text
     x="128.47887"
     y="55.608379"
     style="fill:#000000;font-family:@font-family@;font-size:15.179px;font-variant-caps:normal;font-variant-east-asian:normal;font-variant-ligatures:normal;font-variant-numeric:normal;letter-spacing:0px;line-height:125%;stroke-width:1px;word-spacing:0px"
     xml:space="preserve"
     id="text10"><tspan
       x="128.47887"
       y="55.608379"
       font-family="'@font-family@'"
       font-size="15.179px"
       style="font-family:@font-family@;font-size:15.179px;font-variant-caps:normal;font-variant-east-asian:normal;font-variant-ligatures:normal;font-variant-numeric:normal"
       id="tspan10">@subtitle@</tspan></text>
  <text
     x="445.33609"
     y="94.390854"
     style="fill:#000000;font-family:@font-family@;font-size:15.179px;font-variant-caps:normal;font-variant-east-asian:normal;font-variant-ligatures:normal;font-variant-numeric:normal;letter-spacing:0px;line-height:125%;stroke-width:1px;word-spacing:0px"
     xml:space="preserve"
     id="round_placeholder"><tspan
       x="445.33609"
       y="94.390854"
       font-family="'@font-family@'"
       font-size="15.179px"
       style="font-family:@font-family@;font-size:15.179px;font-variant-caps:normal;font-variant-east-asian:normal;font-variant-ligatures:normal;font-variant-numeric:normal"
       id="tspan11">@round@</tspan></text>
  <text
     x="444.98453"
     y="139.76506"
     style="fill:#000000;font-family:@font-family@;font-size:15.179px;font-variant-caps:normal;font-variant-east-asian:normal;font-variant-ligatures:normal;font-variant-numeric:normal;letter-spacing:0px;line-height:125%;stroke-width:1px;word-spacing:0px"
     xml:space="preserve"
     id="table_placeholder"><tspan
       x="444.98453"
       y="139.76506"
       font-family="'@font-family@'"
       font-size="15.179px"
       style="font-family:@font-family@;font-size:15.179px;font-variant-caps:normal;font-variant-east-asian:normal;font-variant-ligatures:normal;font-variant-numeric:normal"
       id="tspan12">@table@</tspan></text>
  <text
     transform="rotate(-90)"
     x="-234.49774"
     y="280.01535"
     text-align="center"
     text-anchor="middle"
     style="fill:#000000;font-family:@font-family@;font-size:15.179px;font-variant-caps:normal;font-variant-east-asian:normal;font-variant-ligatures:normal;font-variant-numeric:normal;letter-spacing:0px;line-height:125%;stroke-width:1px;word-spacing:0px"
     xml:space="preserve"
     id="text13"><tspan
       x="-234.49774"
       y="280.01535"
       font-family="'@font-family@'"
       font-size="15.179px"
       text-align="center"
       text-anchor="middle"
       style="font-family:@font-family@;font-size:15.179px;font-variant-caps:normal;font-variant-east-asian:normal;font-variant-ligatures:normal;font-variant-numeric:normal"
       id="tspan13">Paar 1</tspan></text>
  <text
     transform="rotate(-90)"
     x="-316.72809"
     y="280.01535"
     text-align="center"
     text-anchor="middle"
     style="fill:#000000;font-family:@font-family@;font-size:15.179px;font-variant-caps:normal;font-variant-east-asian:normal;font-variant-ligatures:normal;font-variant-numeric:normal;letter-spacing:0px;line-height:125%;stroke-width:1px;word-spacing:0px"
     xml:space="preserve"
     id="text14"><tspan
       x="-316.72809"
       y="280.01535"
       font-family="'@font-family@'"
       font-size="15.179px"
       text-align="center"
       text-anchor="middle"
       style="font-family:@font-family@;font-size:15.179px;font-variant-caps:normal;font-variant-east-asian:normal;font-variant-ligatures:normal;font-variant-numeric:normal"
       id="tspan14">Paar 2</tspan></text>
  <path
     d="m58.97 235.3h190.9"
     fill="none"
     stroke="#000"
     stroke-dasharray="0.4875, 2.925"
     stroke-width=".4875"
     id="path14" />
  <path
     d="m58.97 316.99h190.9"
     fill="none"
     stroke="#000"
     stroke-dasharray="0.48771, 2.92626"
     stroke-width=".48771"
     id="path15" />
  <text
     transform="rotate(-90)"
     x="-234.49774"
     y="47.375202"
     fill="#000000"
     font-family="'@font-family@'"
     font-size="15.179px"
     letter-spacing="0px"
     stroke-width="1px"
     text-align="center"
     text-anchor="middle"
     word-spacing="0px"
     style="font-family:@font-family@;font-size:15.179px;font-variant-caps:normal;font-variant-east-asian:normal;font-variant-ligatures:normal;font-variant-numeric:normal;line-height:125%"
     xml:space="preserve"
     id="text15"><tspan
       x="-234.49774"
       y="47.375202"
       font-family="'@font-family@'"
       font-size="15.179px"
       text-align="center"
       text-anchor="middle"
       style="font-family:@font-family@;font-size:15.179px;font-variant-caps:normal;font-variant-east-asian:normal;font-variant-ligatures:normal;font-variant-numeric:normal"
       id="tspan15">Paar 1</tspan></text>
  <text
     transform="rotate(-90)"
     x="-316.72809"
     y="47.375202"
     fill="#000000"
     font-family="'@font-family@'"
     font-size="15.179px"
     letter-spacing="0px"
     stroke-width="1px"
     text-align="center"
     text-anchor="middle"
     word-spacing="0px"
     style="font-family:@font-family@;font-size:15.179px;font-variant-caps:normal;font-variant-east-asian:normal;font-variant-ligatures:normal;font-variant-numeric:normal;line-height:125%"
     xml:space="preserve"
     id="text16"><tspan
       x="-316.72809"
       y="47.375202"
       font-family="'@font-family@'"
       font-size="15.179px"
       text-align="center"
       text-anchor="middle"
       style="font-family:@font-family@;font-size:15.179px;font-variant-caps:normal;font-variant-east-asian:normal;font-variant-ligatures:normal;font-variant-numeric:normal"
       id="tspan16">Paar 2</tspan></text>
  <g
     transform="translate(-7.6341e-8 -688.82)"
     id="g36">
    <g
       transform="matrix(.74755 0 0 .74755 77.641 174.35)"
       fill-rule="evenodd"
       id="g22">
      <path
         d="m-52.738 716.02c-2.1799 0-5.2813 1.5924-5.2813 5.0261v11.129c-2.7596 0-3.8813 2.2657-3.8124 4.1803s1.0929 3.6596 2.9369 4.2371c1.5912.49828 2.6141.6686 4.9431.70467.28439 3.0845-1.008 4.5799-3.3904 6.6842 4.0625.55079 5.8366-3.4037 5.6509-6.6842 2.4479-.0308 3.4805-.19465 5.1091-.70467 1.8439-.57745 2.868-2.3225 2.9369-4.2371s-1.0537-4.1803-3.8133-4.1803v-10.849c0-3.4337-3.0997-5.3058-5.2795-5.3058z"
         fill="#2f874c"
         id="path16" />
      <path
         d="m-52.738 716.02-2e-5 25.277h1.0468c2.4479-.0308 3.4805-.19465 5.1091-.70467 1.8439-.57745 2.868-2.3225 2.9369-4.2371s-1.0537-4.1803-3.8133-4.1803v-10.849c0-3.4337-3.0997-5.3058-5.2795-5.3058z"
         fill="#276239"
         id="path17" />
      <path
         d="m-52.738 716.02c-2.1799 0-5.2813 1.5924-5.2813 5.0261v11.129h10.561v-10.849c0-3.4337-3.0997-5.3058-5.2795-5.3058z"
         fill="#309ac4"
         id="path18" />
      <path
         d="m-52.738 716.02-2e-5 16.155h5.2796v-10.849c0-3.4337-3.0997-5.3058-5.2795-5.3058z"
         fill="#302e27"
         id="path19" />
      <path
         d="m-52.738 716.02c-2.1799 0-5.2813 1.5924-5.2813 5.0261v8.6769h10.561v-8.3973c0-3.4337-3.0997-5.3058-5.2795-5.3058z"
         fill="#eeca43"
         id="path20" />
      <path
         d="m-52.738 716.02-2e-5 13.703 5.2796.00023v-8.3973c0-3.4337-3.0997-5.3058-5.2795-5.3058z"
         fill="#9d3828"
         id="path21" />
      <path
         d="m-52.739 715.52c-1.2117 0-2.6206.42646-3.7676 1.332-1.1469.90557-2.0137 2.326-2.0137 4.1934v10.74c-1.243.13801-2.2498.65553-2.8633 1.457-.70187.91693-.98546 2.0671-.94726 3.1289.0749 2.0816 1.2194 4.0497 3.2871 4.6973 1.458.45659 2.6674.59355 4.5801.6543.0565 1.2414-.13462 2.1903-.61718 3.0332-.53613.93647-1.411 1.8067-2.5918 2.8496l-.82031.72265 1.084.14649c2.1987.2981 3.8829-.66385 4.8945-2.1133.92308-1.3226 1.2876-3.0185 1.2793-4.6289 2.0599-.0526 3.2874-.18955 4.8027-.66406 2.0677-.64753 3.2122-2.6157 3.2871-4.6973.0382-1.0619-.24712-2.212-.94922-3.1289-.6137-.80147-1.6202-1.319-2.8633-1.457v-10.461c0-1.8673-.85827-3.344-1.998-4.3203-1.1398-.97636-2.5501-1.4844-3.7832-1.4844zm0 1c.9468 0 2.1778.42604 3.1328 1.2441.95502.8181 1.6484 1.9942 1.6484 3.5606v11.35h.5c1.243 0 2.0384.48118 2.5703 1.1758.53187.6946.77287 1.6337.74218 2.4863-.0629 1.7475-.96577 3.27-2.5859 3.7773-1.6003.50114-2.5394.6511-4.9668.68164l-.52149.008.0293.52148c.0872 1.5393-.29792 3.2546-1.1426 4.4648-.63175.90517-1.5882 1.3849-2.7559 1.5449.69345-.67651 1.4495-1.3368 1.875-2.0801.63456-1.1084.90899-2.3854.75976-4.0039l-.041-.44727-.44922-.008c-2.3069-.0357-3.2369-.19191-4.8008-.68164-1.6202-.50737-2.525-2.0298-2.5879-3.7773-.0307-.85275.21248-1.7918.74414-2.4863.53166-.69458 1.3254-1.1758 2.5684-1.1758h.5v-11.629c0-1.5663.68603-2.6591 1.6348-3.4082.94873-.74908 2.1783-1.1172 3.1465-1.1172z"
         color="#000000"
         color-rendering="auto"
         image-rendering="auto"
         shape-rendering="auto"
         solid-color="#000000"
         style="isolation:auto;mix-blend-mode:normal;text-decoration-color:#000000;text-decoration-line:none;text-decoration-style:solid;text-indent:0;text-transform:none;white-space:normal"
         id="path22" />
    </g>
    <g
       transform="matrix(.74755 0 0 .74755 78.659 173.61)"
       fill-rule="evenodd"
       id="g25">
      <path
         d="m-26.044 718.04c-4.1154 7.1134-7.7169 7.9246-10.167 12.527-2.4499 4.6023-.60719 8.2189 1.551 10.257 1.8675 1.7633 5.9008 1.6562 7.8649.0678-.29383 3.6839-3.2338 5.0079-2.8222 7.7245 2.6172-.44703 4.4565-5.1677 4.5289-7.5693 2.0279 1.4384 5.8552 1.4811 7.6599-.22296 2.1582-2.0378 4.0009-5.6545 1.551-10.257-2.4499-4.6023-6.0514-5.4135-10.167-12.527z"
         fill="#2f874c"
         id="path23" />
      <path
         d="m-26.044 718.04v22.003c1.4066 2.3579 6.4575 2.8182 8.6157.78031 2.1582-2.0378 4.0009-5.6545 1.551-10.257-2.4499-4.6022-6.0514-5.4135-10.167-12.527z"
         fill="#276239"
         id="path24" />
      <path
         d="m-25.92 716.83-.55664.96094c-2.0302 3.5091-3.9101 5.4362-5.623 7.0957-1.713 1.6595-3.2858 3.0652-4.5527 5.4453-1.2749 2.395-1.4485 4.5939-.99609 6.4434.45241 1.8494 1.5117 3.3406 2.6465 4.4121 1.0681 1.0085 2.6591 1.433 4.2402 1.4277 1.1517-.004 2.2428-.31968 3.2148-.79102-.29019 1.1654-.78244 2.1389-1.3457 3.0234-.72154 1.133-1.4527 2.2992-1.2188 3.8438l.0762.50391.50195-.0859c1.5774-.26942 2.7491-1.7107 3.5801-3.3145.70281-1.3564 1.096-2.8058 1.2461-4.0352 1.0469.54627 2.2752.87338 3.541.85352 1.5272-.024 3.0499-.45119 4.082-1.4258 1.1348-1.0715 2.1921-2.5626 2.6445-4.4121.45241-1.8494.2788-4.0484-.99609-6.4434-1.267-2.3801-2.8398-3.7859-4.5527-5.4453-1.706-1.6527-3.579-3.5787-5.5996-7.0606l-.33203-.99609zm-.12304 2.0859c1.9215 3.1445 3.7538 5.134 5.3594 6.6894 1.7291 1.6751 3.1823 2.9751 4.3652 5.1973 1.175 2.2073 1.3042 4.1174.9082 5.7363-.39601 1.6189-1.3379 2.9556-2.3613 3.9219-.77253.72946-2.0655 1.1312-3.4102 1.1524-1.3447.0211-2.7224-.33996-3.6172-.97461l-.75977-.53906-.0293.93164c-.0327 1.0832-.49288 2.834-1.2539 4.3027-.59205 1.1426-1.3746 1.9377-2.1777 2.3848.11424-.77751.43716-1.4962.9707-2.334.71902-1.1291 1.5949-2.4842 1.752-4.4531l.0937-1.1602-.90625.73242c-.85618.69244-2.2629 1.1067-3.6562 1.1113-1.3934.005-2.7514-.39946-3.5508-1.1543-1.0234-.96632-1.9653-2.303-2.3613-3.9219-.39601-1.6189-.26677-3.529.9082-5.7363 1.1829-2.2222 2.6362-3.5222 4.3652-5.1973 1.6058-1.5556 3.4396-3.5444 5.3613-6.6894z"
         color="#000000"
         color-rendering="auto"
         image-rendering="auto"
         shape-rendering="auto"
         solid-color="#000000"
         style="isolation:auto;mix-blend-mode:normal;text-decoration-color:#000000;text-decoration-line:none;text-decoration-style:solid;text-indent:0;text-transform:none;white-space:normal"
         id="path25" />
    </g>
    <g
       transform="matrix(.74755 0 0 .74755 121.21 150.51)"
       fill-rule="evenodd"
       id="g28">
      <path
         d="m-57.741 752.9c-4.1571-.0896-7.5 4.6061-5.823 8.9242 2.3331 6.0077 6.2401 6.1105 10.826 12.743 4.5855-6.6322 8.4924-6.735 10.826-12.743 1.677-4.318-1.666-9.0138-5.823-8.9242-1.6267.0351-3.3786.80276-5.0025 2.6127-1.6239-1.8099-3.3758-2.5776-5.0025-2.6127z"
         fill="#e43e39"
         id="path26" />
      <path
         d="m-52.738 774.56c4.5855-6.6322 8.4924-6.735 10.826-12.743 1.677-4.318-1.666-9.0138-5.823-8.9242-1.6267.0351-3.3786.80276-5.0025 2.6127z"
         fill="#a93a34"
         id="path27" />
      <path
         d="m-57.729 752.4c-4.5391-.0978-8.1032 4.9624-6.3008 9.6035 1.2003 3.0908 2.8505 4.717 4.7051 6.334s3.9201 3.2512 6.1758 6.5137l.41015.59375.41211-.59375c2.2557-3.2624 4.3193-4.8967 6.1738-6.5137s3.5067-3.2432 4.707-6.334c1.8024-4.6411-1.7617-9.7014-6.3008-9.6035-1.6517.0356-3.3907.86087-4.9922 2.4844-1.6012-1.6227-3.339-2.4488-4.9902-2.4844zm-.0234.99805c1.4772.0319 3.0911.71809 4.6426 2.4473l.37109.41602.37305-.41602c1.5515-1.7292 3.1634-2.4154 4.6406-2.4473 3.775-.0814 6.8972 4.2492 5.3457 8.2441-1.1328 2.917-2.6011 4.347-4.4297 5.9414-1.7166 1.4968-3.7602 3.2244-5.9297 6.2051-2.1692-2.98-4.2113-4.7085-5.9277-6.2051-1.8286-1.5944-3.2988-3.0244-4.4316-5.9414-1.5515-3.995 1.5706-8.3255 5.3457-8.2441z"
         color="#000000"
         color-rendering="auto"
         image-rendering="auto"
         shape-rendering="auto"
         solid-color="#000000"
         style="isolation:auto;mix-blend-mode:normal;text-decoration-color:#000000;text-decoration-line:none;text-decoration-style:solid;text-indent:0;text-transform:none;white-space:normal"
         id="path28" />
    </g>
    <g
       transform="matrix(.74755 0 0 .74755 123.34 150.49)"
       id="g35">
      <path
         d="m-26.044 752.08c-4.8389-6e-5-8.924 3.2288-10.218 7.6493-.2783.95053-.4273 1.9558-.42728 2.9963.00024 1.0018.1397 1.9755.40194 2.901 1.0874 3.8378 4.2816 6.8452 8.3711 7.5759-.0687.20238-.10396.41455-.10486.62827-6e-5 1.0921.88529 1.9775 1.9774 1.9774 1.0921 6e-5 1.9775-.8853 1.9774-1.9774-.00089-.21372-.0362-.42589-.10486-.62827 4.0894-.73069 7.2836-3.7381 8.3711-7.5759.26224-.92552.40171-1.8992.40195-2.901 1e-5-1.0405-.14899-2.0458-.42729-2.9963-1.2942-4.4205-5.3794-7.6494-10.218-7.6493z"
         fill="#2f874c"
         id="path29" />
      <path
         d="m-26.044 752.08v23.728c1.0921 6e-5 1.9775-.8853 1.9774-1.9774-.00089-.21372-.0362-.42589-.10486-.62827 4.0894-.73069 7.2834-3.738 8.3708-7.5757.26225-.92553.40198-1.8994.40222-2.9012 1e-5-1.0405-.14926-2.0462-.42756-2.9967-1.2942-4.4205-5.3791-7.649-10.218-7.6489z"
         fill="#276239"
         id="path30" />
      <path
         d="m-26.044 752.08c-4.8389-6e-5-8.924 3.2288-10.218 7.6493-.2783.95053-.4273 1.9558-.42728 2.9963.00024 1.0018.1397 1.9755.40194 2.901h20.487c.26224-.92552.40171-1.8992.40195-2.901 1e-5-1.0405-.14899-2.0458-.42729-2.9963-1.2942-4.4205-5.3794-7.6494-10.218-7.6493z"
         fill="#e43e39"
         id="path31" />
      <path
         d="m-26.044 752.08v13.547l10.244.00026c.26224-.92553.40171-1.8992.40195-2.901 1e-5-1.0405-.14899-2.0458-.42729-2.9963-1.2942-4.4205-5.3794-7.6494-10.218-7.6493z"
         fill="#a93a34"
         id="path32" />
      <path
         d="m-26.044 752.08c-4.8389-6e-5-8.924 3.2288-10.218 7.6493h20.437c-1.2942-4.4205-5.3794-7.6494-10.218-7.6493z"
         fill="#eeca43"
         id="path33" />
      <path
         d="m-26.044 752.08v7.6493l10.218 5e-5c-1.2942-4.4205-5.3794-7.6494-10.218-7.6493z"
         fill="#a08e37"
         id="path34" />
      <path
         d="m-26.043 751.58c-5.0613-6e-5-9.3437 3.38-10.699 8.0098-.29149.99558-.44729 2.0485-.44727 3.1367.00025 1.0482.14724 2.0678.42188 3.0371 1.0945 3.8627 4.2538 6.8666 8.2949 7.7774-.0119.0968-.0484.18934-.0488.2871v.004c-8e-5 1.3624 1.1161 2.4766 2.4785 2.4766 1.3624 7e-5 2.4766-1.1142 2.4766-2.4766v-.004c-.00041-.0978-.037-.19022-.0488-.2871 4.042-.91023 7.2022-3.914 8.2969-7.7774.27464-.96928.41967-1.989.41992-3.0371 1e-5-1.0882-.15578-2.1411-.44727-3.1367-1.3555-4.6297-5.6359-8.0098-10.697-8.0098zm0 1c4.6165-6e-5 8.5053 3.0798 9.7383 7.291.26511.90549.40626 1.8627.40625 2.8555-.000229.9555-.13297 1.8819-.38281 2.7637-1.0361 3.6566-4.0766 6.5239-7.9766 7.2207l-.57226.10156.18554.55078c.0511.15048.0773.30938.0781.46875 6e-5.82188-.65467 1.4766-1.4766 1.4766-.82124 5e-5-1.4775-.65364-1.4785-1.4746v-.002c.00088-.15946.0271-.31839.0781-.46875l.1875-.55078-.57226-.10156c-3.9-.69684-6.9424-3.5641-7.9785-7.2207-.24984-.88176-.38258-1.8082-.38281-2.7637-2e-5-.99277.14309-1.95.4082-2.8555 1.233-4.2112 5.1218-7.2911 9.7383-7.291z"
         color="#000000"
         color-rendering="auto"
         image-rendering="auto"
         shape-rendering="auto"
         solid-color="#000000"
         style="isolation:auto;mix-blend-mode:normal;text-decoration-color:#000000;text-decoration-line:none;text-decoration-style:solid;text-indent:0;text-transform:none;white-space:normal"
         id="path35" />
    </g>
  </g>
  <g
     transform="translate(0,1.875)"
     stroke-width=".9375px"
     style="font-feature-settings:normal;font-variant-caps:normal;font-variant-ligatures:normal;font-variant-numeric:normal"
     aria-label="Muckturnier.org"
     id="g50">
    <path
       d="m38.498 55.611.8-5.6125-2.35 5.6125h-1.7125l.25-5.6375-2.0875 5.6375h-1l3.175-8.5875q-.9375.3125-1.4625 1.025t-.525 1.7875q0 .225.025.375.025.1375.05.2375.025.0875.05.15.0375.0625.05.1-.6 0-.975-.25-.3625-.2625-.3625-.875 0-.6.35-1.2.3625-.6.925-1.075t1.2625-.7625q.7125-.3 1.4125-.3.5125 0 .975.175l-.2875 6.5875 2.75-6.5875h1.8l-1.3125 9.2z"
       style="font-feature-settings:normal;font-variant-caps:normal;font-variant-ligatures:normal;font-variant-numeric:normal"
       id="path36" />
    <path
       d="m47.498 49.361-.9 4.25q-.05.2125-.05.4 0 .2625.125.3625t.3875.1q.3625 0 .6125-.3125.2625-.3125.4-.7875h.525q-.2625.7625-.6 1.225-.325.45-.675.7-.3375.2375-.6625.3125t-.575.075q-.5375 0-.8625-.3-.3125-.3-.375-.8875-.2375.3875-.4875.625-.2375.225-.475.35t-.4625.1625q-.225.05-.425.05-.5625 0-.95-.35-.3875-.3625-.3875-1.15 0-.3375.1-.8125l.85-4.0125h1.8l-.9 4.25q-.0375.1875-.0375.35 0 .2125.075.3625.0875.15.3.15.3625 0 .6125-.3125t.3875-.7875l.85-4.0125z"
       style="font-feature-settings:normal;font-variant-caps:normal;font-variant-ligatures:normal;font-variant-numeric:normal"
       id="path37" />
    <path
       d="m51.509 51.299q.1-.2125.15-.4625.0625-.25.0625-.4125 0-.4625-.35-.4625-.325 0-.625.375t-.525.925-.3625 1.175-.1375 1.1375q0 .6375.25.85t.7.2125q.375 0 .675-.1t.5625-.2625q.2625-.175.5-.4.2375-.2375.475-.5h.425q-.2625.4375-.6.85t-.7625.7375-.9375.525-1.1375.2q-.8875 0-1.425-.4625-.525-.4625-.525-1.525 0-.3625.075-.825t.2375-.95.4125-.95q.2625-.475.6375-.85t.8625-.6q.5-.225 1.1375-.225.4125 0 .675.1.275.0875.425.25.1625.15.225.35t.0625.4q0 .4625-.2.7625-.1875.2875-.4625.2875-.1 0-.25-.0375-.1375-.0375-.25-.1125z"
       style="font-feature-settings:normal;font-variant-caps:normal;font-variant-ligatures:normal;font-variant-numeric:normal"
       id="path38" />
    <path
       d="m58.794 49.361-2.5 1.7375q.1-.025.2-.0375.1125-.0125.2125-.0125.7 0 1.0375.4375.3375.425.3375 1.025 0 .4-.125.775-.125.3625-.125.725 0 .1875.1.325t.3875.1375q.2 0 .35-.075.1625-.0875.275-.225.125-.15.225-.35t.2-.45h.525q-.2625.7875-.575 1.25t-.625.7q-.3125.225-.6.2875-.2875.075-.5.075-.775 0-1.175-.3625-.4-.375-.4-1.0625 0-.4375.1125-.8125.1125-.3875.1125-.7875 0-.275-.1-.4375t-.35-.1625q-.2125 0-.4375.125t-.4875.3375l-.65 3.0875h-1.8l1.8125-8.5 1.85-.25-.9375 4.4 2.4125-1.9z"
       style="font-feature-settings:normal;font-variant-caps:normal;font-variant-ligatures:normal;font-variant-numeric:normal"
       id="path39" />
    <path
       d="m62.438 47.386-.425 1.975h.75l-.1.5h-.75l-.8 3.75q-.05.2125-.05.4 0 .2625.125.3625t.3875.1q.3625 0 .675-.3125t.45-.7875h.525q-.2625.7625-.6125 1.225-.35.45-.7125.7-.3625.2375-.7125.3125-.3375.075-.5875.075-.5625 0-.95-.35-.3875-.3625-.3875-1.15 0-.3375.1-.8125l.75-3.5125h-.4125l.1-.5h.4125l.375-1.725z"
       style="font-feature-settings:normal;font-variant-caps:normal;font-variant-ligatures:normal;font-variant-numeric:normal"
       id="path40" />
    <path
       d="m68.446 49.361-.9 4.25q-.05.2125-.05.4 0 .2625.125.3625t.3875.1q.3625 0 .6125-.3125.2625-.3125.4-.7875h.525q-.2625.7625-.6 1.225-.325.45-.675.7-.3375.2375-.6625.3125t-.575.075q-.5375 0-.8625-.3-.3125-.3-.375-.8875-.2375.3875-.4875.625-.2375.225-.475.35t-.4625.1625q-.225.05-.425.05-.5625 0-.95-.35-.3875-.3625-.3875-1.15 0-.3375.1-.8125l.85-4.0125h1.8l-.9 4.25q-.0375.1875-.0375.35 0 .2125.075.3625.0875.15.3.15.3625 0 .6125-.3125t.3875-.7875l.85-4.0125z"
       style="font-feature-settings:normal;font-variant-caps:normal;font-variant-ligatures:normal;font-variant-numeric:normal"
       id="path41" />
    <path
       d="m71.681 49.361-.175.7875q.3625-.35.75-.6.4-.25.775-.25.425 0 .6375.2875.225.2875.225.65 0 .1625-.0625.325-.05.1625-.1625.3-.1125.125-.2875.2125-.1625.075-.3875.075-.2625 0-.3625-.125-.0875-.125-.125-.2625-.0375-.15-.075-.275-.025-.125-.1625-.125-.2375 0-.45.1375t-.4625.3625l-1 4.75h-1.8l1.325-6.25z"
       style="font-feature-settings:normal;font-variant-caps:normal;font-variant-ligatures:normal;font-variant-numeric:normal"
       id="path42" />
    <path
       d="m77.343 51.086q0-.6375-.45-.6375-.3375 0-.5875.3375t-.3875.8125l-.85 4.0125h-1.8l1.325-6.25h1.8l-.1375.65q.4-.45.7875-.575t.675-.125q.6 0 .9875.3375.4.325.4 1.075 0 .375-.1.8375-.0875.45-.2.9-.1125.4375-.2125.8375-.0875.3875-.0875.65 0 .2375.1.3875.1125.1375.4.1375.2 0 .35-.075.1625-.0875.275-.225.125-.15.225-.35t.2-.45h.525q-.2625.775-.5625 1.2375-.3.45-.6125.6875t-.6125.3125q-.2875.075-.5375.075-.4125 0-.7-.1125-.275-.125-.45-.325t-.25-.45q-.075-.2625-.075-.525 0-.3125.0875-.7375.0875-.4375.1875-.875.1125-.4375.2-.85.0875-.425.0875-.725z"
       style="font-feature-settings:normal;font-variant-caps:normal;font-variant-ligatures:normal;font-variant-numeric:normal"
       id="path43" />
    <path
       d="m81.167 47.699q0-.4125.2875-.7.2875-.3.7-.3t.7.3q.3.2875.3.7t-.3.7q-.2875.2875-.7.2875t-.7-.2875-.2875-.7zm1.55 1.6625-.9 4.25q-.05.2125-.05.4 0 .2625.125.3625t.3875.1q.3625 0 .675-.3125t.45-.7875h.525q-.2625.7625-.6125 1.225-.35.45-.7125.7-.3625.2375-.7125.3125-.3375.075-.5875.075-.5625 0-.95-.35-.3875-.3625-.3875-1.15 0-.3375.1-.8125l.85-4.0125z"
       style="font-feature-settings:normal;font-variant-caps:normal;font-variant-ligatures:normal;font-variant-numeric:normal"
       id="path44" />
    <path
       d="m85.099 53.586q0 .6375.225.85.225.2.675.2.375 0 .675-.1t.5625-.2625q.2625-.175.5-.4.2375-.2375.475-.5h.425q-.2625.4375-.6.85t-.7625.7375-.9375.525-1.1375.2q-.8875 0-1.425-.4625-.525-.4625-.525-1.525 0-.3625.075-.825t.225-.95q.1625-.4875.425-.95.2625-.475.6375-.85t.875-.6 1.1375-.225q.4125 0 .675.1.275.1.425.275.1625.1625.2125.375.0625.2125.0625.45 0 .525-.2375.9875t-.6375.8125q-.4.3375-.925.55-.5125.2-1.075.2375-.0125.1375-.025.2625 0 .125 0 .2375zm1.9375-3.1125q0-.2375-.075-.375-.0625-.1375-.2375-.1375-.2375 0-.4625.225t-.425.5875q-.2.35-.3625.8-.15.45-.25.9125.3625-.025.6875-.2.3375-.175.5875-.45t.3875-.625q.15-.3625.15-.7375z"
       style="font-feature-settings:normal;font-variant-caps:normal;font-variant-ligatures:normal;font-variant-numeric:normal"
       id="path45" />
    <path
       d="m90.871 49.361-.175.7875q.3625-.35.75-.6.4-.25.775-.25.425 0 .6375.2875.225.2875.225.65 0 .1625-.0625.325-.05.1625-.1625.3-.1125.125-.2875.2125-.1625.075-.3875.075-.2625 0-.3625-.125-.0875-.125-.125-.2625-.0375-.15-.075-.275-.025-.125-.1625-.125-.2375 0-.45.1375t-.4625.3625l-1 4.75h-1.8l1.325-6.25z"
       style="font-feature-settings:normal;font-variant-caps:normal;font-variant-ligatures:normal;font-variant-numeric:normal"
       id="path46" />
    <path
       d="m92.364 54.674q0-.4125.2875-.7.2875-.3.7-.3t.7.3q.3.2875.3.7t-.3.7q-.2875.2875-.7.2875t-.7-.2875-.2875-.7z"
       style="font-feature-settings:normal;font-variant-caps:normal;font-variant-ligatures:normal;font-variant-numeric:normal"
       id="path47" />
    <path
       d="m98.942 49.299q1.575 0 1.6 1.9625.05.0125.1375.0125.2125 0 .4625-.0625.2625-.0625.5125-.1625.2625-.1125.5-.25.25-.1375.45-.275l.1125.3375q-.3625.3875-.95.6625-.575.2625-1.25.375-.075.875-.3375 1.575t-.6625 1.2q-.4.4875-.9125.75t-1.0875.2625q-.4375 0-.8125-.1-.3625-.1125-.625-.35t-.4125-.6125-.15-.9125q0-.3625.075-.825t.2375-.95q.175-.5.4375-.9625.2625-.475.6375-.85.3875-.375.8875-.6t1.15-.225zm-.925 5.2125q.225 0 .45-.1875.2375-.2.425-.5375.2-.35.35-.825t.225-1.025q-.2-.05-.275-.1875-.0625-.15-.0625-.3375 0-.2625.1-.425.1125-.175.2875-.2375-.025-.3875-.1375-.5375-.1-.1625-.3375-.1625-.3375 0-.6375.375-.3.3625-.525.9-.225.525-.3625 1.125-.1375.5875-.1375 1.05 0 .3125.025.5125.0375.1875.1125.3t.2.1625q.125.0375.3.0375z"
       style="font-feature-settings:normal;font-variant-caps:normal;font-variant-ligatures:normal;font-variant-numeric:normal"
       id="path48" />
    <path
       d="m103.83 49.361-.175.7875q.3625-.35.75-.6.4-.25.775-.25.425 0 .6375.2875.225.2875.225.65 0 .1625-.0625.325-.05.1625-.1625.3-.1125.125-.2875.2125-.1625.075-.3875.075-.2625 0-.3625-.125-.0875-.125-.125-.2625-.0375-.15-.075-.275-.025-.125-.1625-.125-.2375 0-.45.1375t-.4625.3625l-1 4.75h-1.8l1.325-6.25z"
       style="font-feature-settings:normal;font-variant-caps:normal;font-variant-ligatures:normal;font-variant-numeric:normal"
       id="path49" />
    <path
       d="m111.9 49.361-1.5375 7.25q-.1375.675-.4 1.0875-.25.4125-.5625.6375-.3.2375-.6375.3125-.3375.0875-.65.0875-.575 0-.9875-.3t-.4125-.9125q0-.3875.1875-.6875t.475-.525q.3-.225.6625-.3875.3625-.15.7125-.2625l.2375-1.0625q-.275.3375-.6625.5875-.375.25-.925.25-.325 0-.625-.1-.2875-.1125-.525-.35t-.375-.6125q-.1375-.3875-.1375-.95 0-.4.0875-.85.0875-.4625.2625-.925t.4375-.8875.625-.75.8-.5125q.45-.2 1-.2.15 0 .3125.025.175.0125.3125.0875.15.0625.25.1875.1125.125.15.35l.125-.5875zm-2.5625.7125q-.4 0-.725.35-.325.3375-.55.825t-.35 1.0375-.125.9625q0 .3625.0625.5625.075.1875.1625.2875.1.0875.2.1125.1125.0125.2.0125.125 0 .2875-.0625t.3125-.1875q.1625-.1375.2875-.3375.1375-.2125.2-.5125l.55-2.5875q-.0125-.1125-.125-.2875-.1-.175-.3875-.175zm-1.9375 7.275q0 .1375.1.275.1125.1375.325.1375.2 0 .4-.275t.325-.8375l.075-.3625q-.2375.0875-.4625.1875-.225.1125-.4.2375-.1625.1375-.2625.2875-.1.1625-.1.35z"
       style="font-feature-settings:normal;font-variant-caps:normal;font-variant-ligatures:normal;font-variant-numeric:normal"
       id="path50" />
  </g>
  <text
     x="437.18024"
     y="94.24437"
     style="fill:#000000;font-family:@font-family@;font-size:15px;font-variant-caps:normal;font-variant-east-asian:normal;font-variant-ligatures:normal;font-variant-numeric:normal;letter-spacing:0px;line-height:125%;stroke-width:.93751px;text-align:end;text-anchor:end;word-spacing:0px"
     xml:space="preserve"
     id="text50"><tspan
       x="437.18024"
       y="94.24437"
       style="fill:#000000;font-family:@font-family@;font-size:15px;font-variant-caps:normal;font-variant-east-asian:normal;font-variant-ligatures:normal;font-variant-numeric:normal;stroke-width:.93751px;text-align:end;text-anchor:end"
       id="tspan50">Runde:</tspan></text>
  <text
     x="437.18024"
     y="139.61858"
     style="fill:#000000;font-family:@font-family@;font-size:15px;font-variant-caps:normal;font-variant-east-asian:normal;font-variant-ligatures:normal;font-variant-numeric:normal;letter-spacing:0px;line-height:125%;stroke-width:.93751px;text-align:end;text-anchor:end;word-spacing:0px"
     xml:space="preserve"
     id="text51"><tspan
       x="437.18024"
       y="139.61858"
       style="fill:#000000;font-family:@font-family@;font-size:15px;font-variant-caps:normal;font-variant-east-asian:normal;font-variant-ligatures:normal;font-variant-numeric:normal;stroke-width:.93751px;text-align:end;text-anchor:end"
       id="tspan51">Tisch:</tspan></text>
  <text
     x="95.001305"
     y="94.24437"
     style="fill:#000000;font-family:@font-family@;font-size:15px;font-variant-caps:normal;font-variant-east-asian:normal;font-variant-ligatures:normal;font-variant-numeric:normal;letter-spacing:0px;line-height:125%;stroke-width:.93751px;text-align:end;text-anchor:end;word-spacing:0px"
     xml:space="preserve"
     id="text52"><tspan
       x="95.001305"
       y="94.24437"
       style="fill:#000000;font-family:@font-family@;font-size:15px;font-variant-caps:normal;font-variant-east-asian:normal;font-variant-ligatures:normal;font-variant-numeric:normal;stroke-width:.93751px;text-align:end;text-anchor:end"
       id="tspan52">Paar 1:</tspan></text>
  <text
     x="95.001305"
     y="139.61858"
     style="fill:#000000;font-family:@font-family@;font-size:15px;font-variant-caps:normal;font-variant-east-asian:normal;font-variant-ligatures:normal;font-variant-numeric:normal;letter-spacing:0px;line-height:125%;stroke-width:.93751px;text-align:end;text-anchor:end;word-spacing:0px"
     xml:space="preserve"
     id="text53"><tspan
       x="95.001305"
       y="139.61858"
       style="fill:#000000;font-family:@font-family@;font-size:15px;font-variant-caps:normal;font-variant-east-asian:normal;font-variant-ligatures:normal;font-variant-numeric:normal;stroke-width:.93751px;text-align:end;text-anchor:end"
       id="tspan53">Paar 2:</tspan></text>
  <path
     d="m 447.98,145.72 h 45.267"
     stroke-width="0.5"
     style="fill:none;stroke:#000000"
     id="table_line" />
  <path
     d="m 447.98,100.43 h 45.267"
     stroke-width="0.5"
     style="fill:none;stroke:#000000"
     id="round_line" />
</svg>
